{
  "1" : {
    "id" : 1,
    "title" : "Big Buck Bunny Trailer",
    "description" : "1080p MPEG-DASH H264/AAC",
    "inputUrl" : "rtsp://192.168.1.6",
    "duration" : 32.400000000,
    "manifest" : "/content/stream_1/manifest.mpd",
    "creationDate" : 1512312033363,
    "directory" : "assets/streams/stream_1",
    "currentLiveTime" : 32
  },
  "2" : {
    "id" : 2,
    "title" : "Sintel Trailer",
    "description" : "720p WEBM-DASH VP9/Opus",
    "inputUrl" : "rtsp://192.168.1.6",
    "duration" : 51.000000000,
    "manifest" : "/content/stream_2/manifest.mpd",
    "creationDate" : 1512312033364,
    "directory" : "assets/streams/stream_2",
    "currentLiveTime" : 51
  },
  "3" : {
    "id" : 3,
    "title" : "Tears of Steel Trailer",
    "description" : "1080p MPEG-DASH H264/AAC",
    "inputUrl" : "rtsp://192.168.1.6",
    "duration" : 39.900000000,
    "manifest" : "/content/stream_3/manifest.mpd",
    "creationDate" : 1512312033365,
    "directory" : "assets/streams/stream_3",
    "currentLiveTime" : 39
  }
}